module gitlab.com/openflightmaps/db-grpc

go 1.19

require (
	entgo.io/contrib v0.3.4
	entgo.io/ent v0.11.5-0.20221031135557-521f9b57bc3d
	github.com/go-sql-driver/mysql v1.7.0
	github.com/jmoiron/sqlx v1.3.5
	github.com/mattn/go-sqlite3 v1.14.16
	github.com/patrickmn/go-cache v2.1.0+incompatible
	github.com/spf13/viper v1.14.0
	google.golang.org/grpc v1.51.0
	google.golang.org/protobuf v1.28.1
)

require (
	ariga.io/atlas v0.8.3 // indirect
	github.com/agext/levenshtein v1.2.3 // indirect
	github.com/apparentlymart/go-textseg/v13 v13.0.0 // indirect
	github.com/fsnotify/fsnotify v1.6.0 // indirect
	github.com/go-openapi/inflect v0.19.0 // indirect
	github.com/golang/protobuf v1.5.2 // indirect
	github.com/google/go-cmp v0.5.9 // indirect
	github.com/google/uuid v1.3.0 // indirect
	github.com/hashicorp/hcl v1.0.0 // indirect
	github.com/hashicorp/hcl/v2 v2.15.0 // indirect
	github.com/jhump/protoreflect v1.14.0 // indirect
	github.com/magiconair/properties v1.8.6 // indirect
	github.com/mitchellh/go-wordwrap v1.0.1 // indirect
	github.com/mitchellh/mapstructure v1.5.0 // indirect
	github.com/pelletier/go-toml v1.9.5 // indirect
	github.com/pelletier/go-toml/v2 v2.0.5 // indirect
	github.com/spf13/afero v1.9.2 // indirect
	github.com/spf13/cast v1.5.0 // indirect
	github.com/spf13/jwalterweatherman v1.1.0 // indirect
	github.com/spf13/pflag v1.0.5 // indirect
	github.com/subosito/gotenv v1.4.1 // indirect
	github.com/zclconf/go-cty v1.12.1 // indirect
	go.uber.org/atomic v1.10.0 // indirect
	go.uber.org/multierr v1.8.0 // indirect
	golang.org/x/mod v0.7.0 // indirect
	golang.org/x/net v0.3.0 // indirect
	golang.org/x/sys v0.3.0 // indirect
	golang.org/x/text v0.5.0 // indirect
	golang.org/x/tools v0.4.0 // indirect
	google.golang.org/genproto v0.0.0-20221024183307-1bc688fe9f3e // indirect
	gopkg.in/ini.v1 v1.67.0 // indirect
	gopkg.in/yaml.v2 v2.4.0 // indirect
	gopkg.in/yaml.v3 v3.0.1 // indirect
)
